{
  "id": "bafy2bzacedx33reiyw5cf7u3b6mq6o6p7pz2zk5lcqodqwnq4zfvwloudeqw6",
  "data": {
    "creator": "did:substrate:5HnKtosumdYfHSifYKBHhNmoXvhDANCU8j8v7tc4p4pY7MMP/sensio-network",
    "desc": "Proof of existence for a photo.",
    "groups": [1],
    "name": "Sensio Photo PoE rule",
    "parentId": "",
    "version": 1,
    "ops": [
      {
        "id": "bafy2bzacecgmp4enyoywse6enuoqgfpffojhrn7kovryv775xa7mhv6f34qju",
        "children": []
      },
      {
        "id": "bafy2bzaceafhfdbh4r6fmmnudwqehqedhf632dbafl7fnmbkbpjnv2miacdza",
        "children": []
      },
      {
        "id": "bafy2bzaceczzm4kzeqfqnk4onhpnipiskfqcxtssm7t54dmrzso5un6eaukya",
        "children": []
      }
    ]
  }
}
