{
  "id": "bafy2bzacea24txwqzwanzte5laqhsy3umk4wq43h3llvlvkebp7gv73kzuzsi",
  "data": {
    "name": "sn_multihash",
    "desc": "Generic blake2b-256 multihash operation.",
    "input": [
      {
        "data": "SnByteArray",
        "decoded": "SnAny"
      }
    ],
    "groups": [
      6
    ],
    "priority": 0,
    "output": {
      "desc": "Returns the Multihash buffer as SnByteArray.",
      "output": "SnByteArray",
      "decoded": "SnBuffer"
    },
    "hashingOp": "sn_cid",
    "encOp": "sn_enc_hex",
    "ops": []
  }
}
